G-F:5
K-M:4
E-J:13
H-A:4
C-H:3
C-K:10
I-F:1
D-O:1
J-A:13
J-L:3
A-L:5
E-L:1
H-G:1
N-O:13
O-B:7
C-B:8
K-J:7
I-B:11
F-H:7
K-I:3
G-B:5
K-B:8
N-M:14
I-N:2
D-E:13
J-O:5
G-L:8
H-E:8
N-D:8
L-K:6
I-D:11
L-D:5
N-A:12
O-E:3
K-A:8
G-I:11
A-I:9
K-H:10
B-J:9
M-B:4
N-B:1
K-O:8
C-G:4
F-A:6
N-G:12
E-I:11
C-A:5
J-G:2
L-O:5
J-I:5
